--------------------------------------------------------------------------------------------

Textos:
                               
Asus MX279H 27" LED IPS

AMD FX Series FX-8350 4.0Ghz 8X Black Edition AMD FX Series FX-8350 4.0Ghz 8X Black Edition